…
<!-- end list -->

``` r
df_breweries <- merge(breweries, lookup_df, by.x = "State", by.y = "state_abb", all.x = TRUE)


df_breweries_count_by_state <- df_breweries %>%
  count(state_name, sort = TRUE)
# 
df_breweries_count_by_state
```

    ## # A tibble: 51 x 2
    ##    state_name        n
    ##    <chr>         <int>
    ##  1 Colorado         47
    ##  2 California       39
    ##  3 Michigan         32
    ##  4 Oregon           29
    ##  5 Texas            28
    ##  6 Pennsylvania     25
    ##  7 Massachusetts    23
    ##  8 Washington       23
    ##  9 Indiana          22
    ## 10 Wisconsin        20
    ## # ... with 41 more rows
…
