…
``` r
df_merged %>%
  count(beer.style)
```

    ## # A tibble: 100 x 2
    ##    beer.style                     n
    ##    <chr>                      <int>
    ##  1 ""                             5
    ##  2 Abbey Single Ale               2
    ##  3 Altbier                       13
    ##  4 American Adjunct Lager        18
    ##  5 American Amber / Red Ale     133
    ##  6 American Amber / Red Lager    29
    ##  7 American Barleywine            3
    ##  8 American Black Ale            36
    ##  9 American Blonde Ale          108
    ## 10 American Brown Ale            70
    ## # ... with 90 more rows
…
``` r
df_merged %>%
  filter(!beer.style %in% c("American Double / Imperial IPA", "American IPA", "Belgian IPA", "English India Pale Ale (IPA)")) %>%
  filter(str_detect(beer.style, "Ale") | beer.id==1635) %>%
  count(beer.style)
```

    ## # A tibble: 29 x 2
    ##    beer.style                   n
    ##    <chr>                    <int>
    ##  1 ""                           1
    ##  2 Abbey Single Ale             2
    ##  3 American Amber / Red Ale   133
    ##  4 American Black Ale          36
    ##  5 American Blonde Ale        108
    ##  6 American Brown Ale          70
    ##  7 American Dark Wheat Ale      7
    ##  8 American Pale Ale (APA)    245
    ##  9 American Pale Wheat Ale     97
    ## 10 American Strong Ale         14
    ## # ... with 19 more rows
…
